<!-- Generator: Adobe Illustrator 22.1.0, SVG Export Plug-In  -->
<svg version="1.1"
	 xmlns="http://www.w3.org/2000/svg" xmlns:xlink="http://www.w3.org/1999/xlink" xmlns:a="http://ns.adobe.com/AdobeSVGViewerExtensions/3.0/"
	 x="0px" y="0px" width="19px" height="19px" viewBox="0 0 19 19" style="enable-background:new 0 0 19 19;" xml:space="preserve">
<style type="text/css">
	.st0{fill:#FFFFFF;}
</style>
<defs>
</defs>
<g>
	<path class="st0" d="M19,19H8V4h6.7L19,8.3V19z M17,16h-7v1h7V16z M17,14h-7v1h7V14z M17,12h-7v1h7V12z M17,10h-7v1h7V10z M15,8h-5
		v1h5V8z M13,6h-3v1h3V6z"/>
	<g>
		<rect x="2" y="4" class="st0" width="5" height="1"/>
		<polygon class="st0" points="9,14 1,14 1,1 6.3,1 10,4.7 10,5 11,5 11,4.3 6.7,0 0,0 0,15 9,15 		"/>
		<rect x="2" y="6" class="st0" width="7" height="1"/>
		<rect x="2" y="2" class="st0" width="3" height="1"/>
		<rect x="2" y="8" class="st0" width="7" height="1"/>
		<rect x="2" y="12" class="st0" width="7" height="1"/>
		<rect x="2" y="10" class="st0" width="7" height="1"/>
	</g>
</g>
</svg>
